{
  "version": 224,
  "tenantid": "FreeCharge",
  "mobappid": 2933,
  "appName": "FreeChargeWallet",
  "appDisplayName": "Free Charge Wallet",
  "homeScreenTemplate": "<script>\r\n    MyCampusApp.rootScope.animatepage = function(currentstyle) {\r\n        $(\".app-body\").addClass(currentstyle);\r\n    }\r\n    var hideInterval = setInterval(function() {\r\n        var animatecss = $(\"#animatecss\");\r\n        if (!animatecss || animatecss.length <= 0) {\r\n            $.ajax({\r\n                url: \"https://raw.githubusercontent.com/daneden/animate.css/master/animate.css\",\r\n                dataType: \"text\",\r\n                success: function(data) {\r\n                    $(\"head\").append(\"<style id='animatecss'>\" + data + \"<\/style>\");\r\n                    clearInterval(hideInterval);\r\n                }\r\n            });\r\n        }\r\n    }, 2000);\r\n    if (!MyCampusApp.rootScope.cangelistadded) {\r\n        MyCampusApp.rootScope.$on(\"$routeChangeStart\", function(event, next, current) {\r\n            $(\".app-body\").attr(\"class\", \"app-body animated \");\r\n        });\r\n        MyCampusApp.rootScope.$on(\"$routeChangeSuccess\", function(event, next, current) {\r\n            currentstyle = \"bounceInRight\";\r\n            if (next.loadedTemplateUrl == \"partials/home.html\" && current.loadedTemplateUrl != \"partials/home.html\") {\r\n                currentstyle = \"bounceInLeft\";\r\n            } else if(current.loadedTemplateUrl != \"partials/home.html\") {\r\n                if (next.params.appid == current.params.appid && next.params.appid == next.params.pageid) {\r\n                    currentstyle = \"bounceInLeft\";\r\n                }\r\n              \tif (MyCampusApp.rootScope.ppage) {\r\n                \tif (MyCampusApp.rootScope.ppage.appid == next.params.appid && MyCampusApp.rootScope.ppage.pageid == next.params.pageid) {\r\n                    \tcurrentstyle = \"bounceInLeft\";\r\n                \t}\r\n                }\r\n            }\r\n            $(\".app-body\").addClass(currentstyle);\r\n            $(\".app-body\").addClass(\"animated\");\r\n            MyCampusApp.rootScope.cpage = next.params;\r\n            MyCampusApp.rootScope.ppage = current.params;\r\n        });\r\n        MyCampusApp.rootScope.cangelistadded = true;\r\n    }\r\n<\/script>",
  "middlewareServerUrl": null,
  "feedbackEmail": null,
  "backgroundurl": "FreeCharge/background.png",
  "brandingurl": "FreeCharge/branding.png",
  "customStyle": "#branding {\r\n  position:absolute !important;\r\n  bottom:40px;\r\n  left:0px !important;\r\n  right:0px !important;\r\n  width:50% !important;\r\n  margin:auto !important;\r\n}\r\nbody {\r\n   position:absolute;\r\n   width:100%;\r\n   height:100%;\r\n   background-size:100% 100% !important;\r\n}\r\n.icon {\r\n   width:56px !important;\r\n   height:56px !important;\r\n}\r\n.campuseai-Info {\r\n  color:white;\r\n}\r\n.dockicon:after {\r\n   bottom:0px !important;\r\n}\r\n\r\n.dockicon {\r\n   margin-bottom:25px !important;\r\n}\r\n\r\n\r\n.blockUI i{\r\n   color:white !important;\r\n}\r\n\r\n@media (min-width: 768px) { \r\n   #branding {\r\n      width:50% !important;\r\n      margin:auto;    \r\n   }\r\n   .icon {\r\n      width:102px !important;\r\n      height:102px !important;\r\n    }\r\n}\r\n\r\n.promptumenu_nav a.active {\r\n   background:#fff;\r\n   border-radius:50%;\r\n   width:10px;\r\n   height:10px;\r\n}\r\n\r\n.promptumenu_nav a {\r\n  background:#00162f;\r\n   border-radius:50%;\r\n   width:10px;\r\n   height:10px;\r\n}\r\n.promptumenu_window {\r\n   overflow:visible !important; \r\n}\r\n\r\n.promptumenu_nav {\r\nmargin-bottom:-3px;\r\n}\r\n\r\n.app-body {\r\n   padding-bottom:19px !important;\r\n}\r\n\r\n.blockUI {\r\n  margin:auto !important;\r\n  left:0px  !important;\r\n  right:0px !important;\r\n  width:auto !important;\r\n}\r\n\r\n#homedata .campuseai-Info {\r\n  width:76px !important;\r\n  margin-left:-10px;\r\n}\r\n@media (min-width : 320px) and (max-width : 480px) { \r\n   .icon { width:56px !important;\r\n     height:56px !important;\r\n   }\r\n   #homedata .campuseai-Info {\r\n     width:76px !important;\r\n     margin-left:-10px;\r\n   }\r\n}\r\n\r\n@media (min-width : 320px) and (max-width : 568px) { \r\n   .icon { width:63px !important;\r\n\t   height:63px !important;\r\n   }\r\n   #homedata .campuseai-Info {\r\n     width:83px !important;\r\n     margin-left:-10px;\r\n   }\r\n}\r\n\r\n#mainSidebar .list-group-item {\r\n  border-bottom:1px solid #000 !important;\r\n}\r\n\r\n#homedata .campuseai-Info {\r\n  font-weight:bold;\r\n  text-shadow:2px 2px 2px #000;\r\n}.navbar-app, .sidebar, #mainSidebar { background : #e3704d !important; } .navbar-brand, .navbar-absolute-top .btn-navbar { color : #ffffff !important; } .navbar-absolute-bottom .navbar-inverse { background :  !important; } .navbar-absolute-bottom .navbar-inverse { color :  !important; } .app { background : #ebebeb !important; } .campuseai-Info { color :  !important; } #mainSidebar .list-group-item { background :  !important; } #mainSidebar .list-group-item { color :  !important; } #mainSidebar .appgroup { background :  !important; } #mainSidebar .appgroup { color :  !important; } .btn-primary { background :  !important; } .btn-primary { color :  !important; } .btn-primary { border-color :  !important; } ",
  "authFunction": "function authFunction(uname, password, $http, $rootScope, success, error) {\r\n  alert (\"Tenant from Mycampus : \" + MyCampusApp.config.tenant);\r\n  alert (\"Tenant from Jstorage : \" + $.jStorage.get('tenant'));\r\n  $.jStorage.deleteKey('tenant');\r\n    var authSuccess = success;\r\n    var authError = error;\r\n    //Peoplesoft authentication\r\n    /*\r\n    var url = $rootScope.middlewareServerUrl + \"/services/ps/psholds\";\r\n    var data = {};\r\n    if (window.device) {\r\n        data = \"userId=\" + uname + \"&password=\" + password;\r\n    } else {\r\n        url = \"/websimulator/json?url=\" + url;\r\n        data = {\r\n            method: \"POST\",\r\n            body: \"userId=\" + uname + \"&password=\" + password\r\n        };\r\n    }\r\n    $.blockUI({\r\n        message: '<div style=\"margin: 2px; vertical-align: middle; display: inline-block\"><i class=\"icon-cog icon-spin icon-4x\"><\/i><h3>Authenticating<\/h3><\/div>'\r\n    });\r\n    alert(\"URL : \" + url);\r\n    $http.post(url, data).success(function (data, status, headers, config) {\r\n        success(data);\r\n        $.unblockUI();\r\n    }).error(function (data, status, headers, config) {\r\n        error(data);\r\n        $.unblockUI();\r\n    });\r\n*/\r\n    //Banner Authentication with CAS\r\n\r\n    /*var url = \"https://my.curry.edu/cas/v1/tickets/\";\r\n    var data = {};\r\n    if (window.device) {\r\n        data = \"username=\" + uname + \"&password=\" + password;\r\n    } else {\r\n        url = \"/websimulator/text?url=\" + url;\r\n        data = {\r\n            method: \"POST\",\r\n            body: \"username=\" + uname + \"&password=\" + password\r\n        };\r\n    }\r\n\r\n    $rootScope.generateST = function (tgt, service, callback) {\r\n        var data = {};\r\n        if (window.device) {\r\n            data = \"service=\" + service;\r\n        } else {\r\n            url = \"/websimulator/text?url=\" + \"https://my.curry.edu/cas/v1/tickets/\";\r\n            data = {\r\n                method: \"POST\",\r\n                body: \"service=\" + service\r\n            };\r\n        }\r\n\r\n        $.ajax({\r\n            url: url + tgt,\r\n            type: \"POST\",\r\n            async: true,\r\n            data: data,\r\n            error: function (response) {\r\n                alert(\"Error : \" + response);\r\n\r\n            },\r\n            success: function (data) {\r\n                //alert(\"Success : \" + data);\r\n                callback(data);\r\n            }\r\n        });\r\n\r\n    };\r\n\r\n    $.blockUI({\r\n        message: '<div style=\"margin: 2px; vertical-align: middle; display: inline-block\"><i class=\"icon-cog icon-spin icon-4x\"><\/i><h3>Authenticating<\/h3><\/div>'\r\n    });\r\n    $.ajax({\r\n        url: url,\r\n        type: \"POST\",\r\n        async: true,\r\n        data: data,\r\n        error: function (response) {\r\n            $.unblockUI();\r\n        },\r\n        success: function (data) {\r\n            //alert(\"Success : \" + data);\r\n            $.unblockUI();\r\n\r\n        },\r\n        complete: function (response, textStatus) {\r\n            //alert(\"complete : \" + response + \"  text status : \" + textStatus);\r\n            $.unblockUI();\r\n            if (textStatus == \"success\" && response.status == 201) {\r\n                var str = response.getResponseHeader('Location');\r\n                var tgtTicket = str.substr(str.lastIndexOf('/') + 1);\r\n                //generateST(tgtTicket);\r\n                success({\r\n                    \"ticket\": tgtTicket\r\n                });\r\n                $rootScope.$apply(function () {\r\n\r\n                    $rootScope.setRoute(\"/home\");\r\n\r\n                });\r\n\r\n\r\n            } else {\r\n                success({\r\n                    \"error\": \"Oops! Cannot log you in. Please check your login details.\"\r\n                });\r\n            }\r\n        }\r\n\r\n    });*/\r\n\r\n\r\n    //Banner Authentication with LDAP - middlware auth\r\n\r\n    var url = $rootScope.middlewareServerUrl + \"/bannermobile2/services/authenticate/login\";\r\n    var data = {};\r\n    if (window.device) {\r\n        data = \"username=\" + uname + \"&password=\" + password;\r\n    } else {\r\n        url = \"/websimulator/json?url=\" + url;\r\n        data = {\r\n            method: \"POST\",\r\n            body: \"username=\" + uname + \"&password=\" + password\r\n        };\r\n    }\r\n    var authUrl = url;\r\n    var authData = data;\r\n    $rootScope.generateST = function(tgt, service, callback) {\r\n        //Bypassing the ST as there is no service ticket required here..\r\n        callback(tgt);\r\n    };\r\n\r\n    $rootScope.postAPI = function(endpoint, postdata, callback) {\r\n        $.blockUI();\r\n        $rootScope.generateST($rootScope.ticket, endpoint, function(st) {\r\n            var serviceurl = endpoint + \"?ticket=\" + st;\r\n            var url = \"\";\r\n            var proxyMethod = \"POST\";\r\n            var proxyData = postdata;\r\n            if (window.device) {\r\n                url = serviceurl;\r\n            } else {\r\n                url = \"/websimulator/json?url=\" + serviceurl;\r\n                proxyMethod = \"POST\";\r\n                proxyData = {\r\n                    method: \"POST\",\r\n                    body: postdata\r\n                }\r\n            }\r\n            $http({\r\n                method: proxyMethod,\r\n                url: url,\r\n                data: proxyData\r\n            }).\r\n            success(function(data, status, headers, config) {\r\n                $.unblockUI();\r\n                callback(data, status, headers, config);\r\n            }).\r\n            error(function(data, status, headers, config) {\r\n                $.unblockUI();\r\n                //alert(\"Error in service call : \" + data + \" Status : \" + status);\r\n                if (status == 403) { //Ticket expired.. need to relogin\r\n                    $http.post(authUrl, authData).success(function(data, status, headers, config) {\r\n                        authSuccess(data);\r\n                        $rootScope.getAPI(endpoint, callback);\r\n                    }).error(function(data, status, headers, config) {\r\n                        authError(data);\r\n\r\n                    });\r\n                }\r\n\r\n            });\r\n\r\n        });\r\n\r\n    };\r\n\r\n    $rootScope.getAPI = function(endpoint, callback) {\r\n        $.blockUI();\r\n        $rootScope.generateST($rootScope.ticket, endpoint, function(st) {\r\n            var serviceurl = endpoint + \"?ticket=\" + st;\r\n            var url = \"\";\r\n            var proxyMethod = \"GET\";\r\n            var proxyData = {};\r\n            if (window.device) {\r\n                url = serviceurl;\r\n            } else {\r\n                url = \"/websimulator/json?url=\" + encodeURIComponent(serviceurl);\r\n                proxyMethod = \"POST\";\r\n                proxyData = {\r\n                    method: \"GET\"\r\n                }\r\n            }\r\n            $http({\r\n                method: proxyMethod,\r\n                url: url,\r\n                data: proxyData\r\n            }).\r\n            success(function(data, status, headers, config) {\r\n                $.unblockUI();\r\n                callback(data, status, headers, config);\r\n            }).\r\n            error(function(data, status, headers, config) {\r\n                $.unblockUI();\r\n                //alert(\"Error in service call : \" + data + \" Status : \" + status);\r\n                if (status == 403) { //Ticket expired.. need to relogin\r\n                    $http.post(authUrl, authData).success(function(data, status, headers, config) {\r\n                        authSuccess(data);\r\n                        $rootScope.getAPI(endpoint, callback);\r\n                    }).error(function(data, status, headers, config) {\r\n                        authError(data);\r\n\r\n                    });\r\n                }\r\n\r\n            });\r\n\r\n        });\r\n\r\n    };\r\n\r\n\r\n\r\n\r\n    $.blockUI({\r\n        message: '<div style=\"margin: 2px; vertical-align: middle; display: inline-block\"><i class=\"icon-cog icon-spin icon-4x\"><\/i><h3>Authenticating<\/h3><\/div>'\r\n    });\r\n\r\n    $http.post(url, data).success(function(data, status, headers, config) {\r\n        success(data);\r\n        $.unblockUI();\r\n    }).error(function(data, status, headers, config) {\r\n        error(data);\r\n        $.unblockUI();\r\n    });\r\n\r\n}",
  "forgotPasswordUrl": null,
  "reportissueEmail": null,
  "iconWidth": 70,
  "apps": 
  [
    {
      "id": 37529,
      "name": "FreeChargeWallet",
      "displayname": "Free Charge Wallet",
      "logo": "FreeCharge/FreeChargeWallet.png",
      "logourl": "FreeCharge/FreeChargeWallet.png",
      "description": "Free Charge Wallet",
      "appFeatureType": "Public",
      "roles": null,
      "showInDock": false,
      "showInHome": true,
      "networkrequired": true,
      "analytics": false,
      "pages": 
      [
        {
          "pageid": "FreeChargeWallet",
          "pageTemplate": "<div><\/div>",
          "pageprocessor": "function pageprocessorFreeChargeWallet(pagedef, $scope, $routeParams, $compile, $http, $rootScope, $sce, $window, $location) {\r\n    var data1 = $compile($(pagedef.datatemplate))($scope);\r\n    $(\"#appContent\").append(data1);\r\n\r\n    $rootScope.phone = '8861749123';\r\n    $rootScope.name = 'Vishal Singh';\r\n    /*Global variables*/\r\n    $rootScope.merchantId = 'CodyvercypIqIp';\r\n    $rootScope.kryptosEndpoint = \"\";\r\n    $rootScope.freechargeLoginEndpoint = \"\";\r\n    $rootScope.freechargeCheckoutEndpoint = \"\";\r\n\r\n    /*Endpoints*/\r\n    var sandbox_login_endpoint_freecharge = 'https://login-sandbox.freecharge.in';\r\n    var prod_login_endpoint_freecharge = 'https://login.freecharge.in';\r\n\r\n    var sandbox_checkout_endpoint_freecharge = 'https://checkout-sandbox.freecharge.in';\r\n    var prod_checkout_endpoint_freecharge = 'https://checkout.freecharge.in';\r\n\r\n    var localhostEndpoint = 'http://172.20.4.79:8080';\r\n    var productionEndpoint = 'https://kryptosda.kryptosmobile.com';\r\n\r\n\r\n\r\n    $rootScope.kryptosEndpoint = productionEndpoint;\r\n    $rootScope.freechargeLoginEndpoint = sandbox_login_endpoint_freecharge;\r\n    $rootScope.freechargeCheckoutEndpoint = sandbox_checkout_endpoint_freecharge;\r\n\r\n    /* Apis*/\r\n    var generateChecksum = $rootScope.kryptosEndpoint + '/kryptosds/freecharge/generatechecksum';\r\n    var generateOtp = $rootScope.freechargeLoginEndpoint + '/api/v2/co/oauth/user/generate/otp';\r\n    var resendOtp = $rootScope.freechargeLoginEndpoint + '/api/v2/co/oauth/user/resend/otp';\r\n    var verifyOtp = $rootScope.freechargeLoginEndpoint + '/api/v2/co/oauth/user/login';\r\n    var walletBalance = $rootScope.freechargeCheckoutEndpoint + '/api/v1/co/oauth/wallet/balance?';\r\n    var registerUrl = '?merchantId=' + $rootScope.merchantId + '&callbackUrl=https://kryptos.kryptosmobile.com/freecharge/register&mobileNumber=';\r\n\r\n    /* Variable*/\r\n    $scope.hasAccesstoken = true;\r\n    $scope.requestForOtp = false;\r\n    $scope.enterOtp = false;\r\n    $scope.otp = '';\r\n    $rootScope.walletBalance = '';\r\n    $scope.otpRequestData = {};\r\n\r\n\r\n    var accessToken = $.jStorage.get('accessToken');\r\n    if (accessToken) {\r\n        // get wallet balance\r\n        $.blockUI({\r\n            message: '<div id=\"floatingBarsG\"><div class=\"blockG\" id=\"rotateG_01\"><\/div><div class=\"blockG\" id=\"rotateG_02\"><\/div><div class=\"blockG\" id=\"rotateG_03\"><\/div><div class=\"blockG\" id=\"rotateG_04\"><\/div><div class=\"blockG\" id=\"rotateG_05\"><\/div><div class=\"blockG\" id=\"rotateG_06\"><\/div><div class=\"blockG\" id=\"rotateG_07\"><\/div><div class=\"blockG\" id=\"rotateG_08\"><\/div><\/div><div><\/div>'\r\n        });\r\n\r\n        var walletUrl = walletBalance + 'accessToken=' + accessToken + '&merchantId=' + $rootScope.merchantId;\r\n        callApi('GET', null, walletUrl, function (err, data) {\r\n            $.unblockUI();\r\n            if (err) {\r\n                alert(JSON.stringify(err));\r\n            } else {\r\n                $rootScope.walletBalance = data['walletBalance'];\r\n            }\r\n        });\r\n    } else {\r\n        // get access token\r\n        $scope.hasAccesstoken = false;\r\n        $scope.requestForOtp = true;\r\n        $scope.enterOtp = false;\r\n    }\r\n\r\n    $scope.requestOtp = function () {\r\n        $.blockUI({\r\n            message: '<div id=\"floatingBarsG\"><div class=\"blockG\" id=\"rotateG_01\"><\/div><div class=\"blockG\" id=\"rotateG_02\"><\/div><div class=\"blockG\" id=\"rotateG_03\"><\/div><div class=\"blockG\" id=\"rotateG_04\"><\/div><div class=\"blockG\" id=\"rotateG_05\"><\/div><div class=\"blockG\" id=\"rotateG_06\"><\/div><div class=\"blockG\" id=\"rotateG_07\"><\/div><div class=\"blockG\" id=\"rotateG_08\"><\/div><\/div><div><\/div>'\r\n        });\r\n\r\n        var requestOtpParam = {\r\n            merchantId: $rootScope.merchantId,\r\n            mobileNumber: $rootScope.phone\r\n        };\r\n\r\n        callApi('POST', requestOtpParam, generateChecksum, /*  callback*/ function (err, data) {\r\n            alert(data);\r\n            requestOtpParam['checksum'] = data;\r\n            callApi('POST', requestOtpParam, generateOtp, function (err, data) {\r\n                $.unblockUI();\r\n\r\n                if (err) {\r\n                    alert(\"error \" + JSON.stringify(err));\r\n                } else {\r\n                    alert(\"data \" + JSON.stringify(data));\r\n                    if (data['errorCode']) {\r\n                        alert(data['errorMessage']);\r\n                    } else {\r\n                        $scope.otpRequestData = data;\r\n                        if (data['status'] === 'REDIRECT') {\r\n                            alert('Register User');\r\n                            var url = data['redirectUrl'] + registerUrl + $rootScope.phone;\r\n                            $rootScope.redirectUrl = url;\r\n                            $location.path('app/FreeChargeWallet/FreeChargeWalletPage2');\r\n\r\n\r\n                        } else {\r\n                            $scope.enterOtp = true;\r\n                            $scope.requestForOtp = false;\r\n                        }\r\n                    }\r\n\r\n                }\r\n            })\r\n\r\n\r\n        })\r\n\r\n    };\r\n\r\n    $scope.verifyOtp = function () {\r\n        $.blockUI({\r\n            message: '<div id=\"floatingBarsG\"><div class=\"blockG\" id=\"rotateG_01\"><\/div><div class=\"blockG\" id=\"rotateG_02\"><\/div><div class=\"blockG\" id=\"rotateG_03\"><\/div><div class=\"blockG\" id=\"rotateG_04\"><\/div><div class=\"blockG\" id=\"rotateG_05\"><\/div><div class=\"blockG\" id=\"rotateG_06\"><\/div><div class=\"blockG\" id=\"rotateG_07\"><\/div><div class=\"blockG\" id=\"rotateG_08\"><\/div><\/div><div><\/div>'\r\n        });\r\n\r\n        var verifyOtpParam = {\r\n            merchantId: $rootScope.merchantId,\r\n            otpId: $scope.otpRequestData['otpId'],\r\n            otp: $scope.otp,\r\n            userMachineIdentifier: window.device.uuid\r\n        };\r\n\r\n        callApi('POST', verifyOtpParam, generateChecksum, /* success callback*/ function (err, data) {\r\n            alert(data);\r\n            verifyOtpParam['checksum'] = data;\r\n            callApi('POST', verifyOtpParam, verifyOtp, function (err, data) {\r\n                if (err) {\r\n                    alert(JSON.stringify(err));\r\n                } else {\r\n                    $.unblockUI();\r\n                    var accessToken = data['accessToken'];\r\n                    $.jStorage.set('accessToken', accessToken);\r\n                    alert(accessToken);\r\n                    var walletUrl = walletBalance + 'accessToken=' + accessToken + '&merchantId=' + $rootScope.merchantId;\r\n                    callApi('GET', null, walletUrl, function (err, data) {\r\n                        if (err) {\r\n                            alert(JSON.stringify(err));\r\n                        } else {\r\n                            $rootScope.walletBalance = data['walletBalance'];\r\n                            alert($rootScope.walletBalance);\r\n                            $scope.enterOtp = false;\r\n                            $scope.hasAccesstoken = true;\r\n\r\n                        }\r\n                    })\r\n\r\n\r\n                }\r\n            })\r\n\r\n\r\n        })\r\n\r\n    };\r\n\r\n    $scope.resendOtp = function () {\r\n\r\n        $.blockUI({\r\n            message: '<div id=\"floatingBarsG\"><div class=\"blockG\" id=\"rotateG_01\"><\/div><div class=\"blockG\" id=\"rotateG_02\"><\/div><div class=\"blockG\" id=\"rotateG_03\"><\/div><div class=\"blockG\" id=\"rotateG_04\"><\/div><div class=\"blockG\" id=\"rotateG_05\"><\/div><div class=\"blockG\" id=\"rotateG_06\"><\/div><div class=\"blockG\" id=\"rotateG_07\"><\/div><div class=\"blockG\" id=\"rotateG_08\"><\/div><\/div><div><\/div>'\r\n        });\r\n\r\n        var resendOtpParam = {\r\n            otpId: $scope.otpRequestData['otpId'],\r\n            merchantId: $rootScope.merchantId,\r\n            channel: 'THROUGH_SMS'\r\n        };\r\n\r\n        alert(JSON.stringify(resendOtpParam));\r\n\r\n        callApi('POST', resendOtpParam, generateChecksum, /* success callback*/ function (err, data) {\r\n            alert(data);\r\n            resendOtpParam['checksum'] = data;\r\n            callApi('POST', resendOtpParam, resendOtp, function (err, data) {\r\n                $.unblockUI();\r\n                if (err) {\r\n                    alert(JSON.stringify(err));\r\n                } else {\r\n                    alert(JSON.stringify(data));\r\n                    $scope.otpRequestData = data;\r\n                    if (data['status'] === 'REDIRECT')\r\n                        alert('Register User');\r\n                    else\r\n                        $scope.requested = true;\r\n                }\r\n            })\r\n\r\n\r\n        })\r\n\r\n    }\r\n\r\n\r\n    function callApi(proxyMethod, proxyData, url, callback) {\r\n        try {\r\n            $http({\r\n                method: proxyMethod,\r\n                url: url,\r\n                data: proxyData\r\n            }).\r\n            success(function (data, status, headers, config) {\r\n                callback(null, data);\r\n            }).\r\n            error(function (data, status, headers, config) {\r\n                callback(data, null);\r\n            });\r\n\r\n        } catch (e) {\r\n        }\r\n\r\n    }\r\n\r\n    $scope.addMoney = function () {\r\n        $location.path('app/FreeChargeWallet/FreeChargeWalletPage3');\r\n    }\r\n\r\n\r\n\r\n\r\n}",
          "datatemplate": "<style>\r\n    @import url(http://fonts.googleapis.com/css?family=Open+Sans:300italic,400italic,700italic,300,400,700);\r\n\r\n    .openSans {\r\n        font-family: 'Open Sans', sans-serif;\r\n    }\r\n\r\n    .app-body {\r\n        background: #EBEBEB;\r\n        padding-bottom: 0px !important;\r\n    }\r\n\r\n    .has-navbar-top .app-body {\r\n        padding-top: 47px;\r\n    }\r\n\r\n    .navbar-absolute-bottom {\r\n        top: auto;\r\n        bottom: 0;\r\n        border-bottom: 0 none;\r\n        border-top-width: 1px;\r\n        min-height: 0 !important;\r\n        height: 0 !important;\r\n    }\r\n\r\n    .navbar-absolute-top {\r\n        top: 0;\r\n        border-bottom-width: 0px !important;\r\n    }\r\n\r\n    .backButtonArrow {\r\n        display: none;\r\n    }\r\n\r\n    .app-body {\r\n\r\n    }\r\n\r\n    input:focus,\r\n    select:focus,\r\n    textarea:focus,\r\n    button:focus {\r\n        outline: none;\r\n    }\r\n<\/style>\r\n\r\n<div style=\"background: #EBEBEB;border: 0; position: relative;text-align: center;\">\r\n\r\n    <div ng-show=\"hasAccesstoken\" style=\"padding: 20px;\">\r\n        <!--<div>Your wallet balance is {{walletBalance}}<\/div>\r\n        <div style=\"margin: 15px;\">\r\n            <span style=\"padding: 10px 50px;background: black;color: #fff;\" ng-click=\"addMoney()\">Add Money<\/span>\r\n        <\/div>-->\r\n        <div>\r\n            <img style=\"float: left;\"\r\n                 src=\"data:image/png;base64,iVBORw0KGgoAAAANSUhEUgAAACAAAAAgCAYAAABzenr0AAACR0lEQVRYR73XS6jNURTH8c+lMCARBgwMyFh5lBiIKNdlhjzLiDJQjDyGlMktGTFCnjFyXY8UZeBRiowZiUiu10AIV+v2/9dxOo+9//+bPTudtX7r+1977b3X6vHv6sUuLME09DT9X+fnRzzCKVwvhcoAE3AGm+pEyPC9ih34XgJc/o/BS84rETMAIu03MuhH07QvAK5hfabqV0TWnuEXFmAzJmfqDAbAe0zPcLyDrfjQ5BNFewGrM7SGAuBPRrU/xdIonjZBxuMx5idCDAfAcKJxmK3EvS72qxBZSlo5AF8wtchYJ/ExCNuJKQQ5AC8wL0UULzEnxTYHIL5qSsKWRQY+Y9JoA4TectzvIrwCd1OCh01OBsL+CZbhZ5sA4/CwuBeSGHIBQjRuze341BQhtud8cbMmBa+SgVI4XraLiHvhd/HF24pTkhy8CsBpHMdaLMKsItrrYntuYn/x0iWB5GzBYRxNUuUQjqTYpgIcw4EUwQabgD3YzScFIPZ5cbHX3fQa/x9bvAsLOzmlAPTV6BeiVgbrALwrCi1ezCorbsW3mNHOuVsGzuVUdJsg0SNsqQqwFyeqfHqDzz70VwVYg9s1AaLdi7av5eq2BdHZPK8JEKcg3pBKALPxqibAXEQv0WqNtGRDHe7waFabm89cnpl408ZppCmNcxrntdXag2+5EZvsozFpV8gDAbAOAzWDVHXvLUezGJM2VFWp6Hcp7ofG4fQsNlYUy3WL4Dvxo3n8jlrYXYzn0YKP1nges0c0MQ9wErdK4r93CnHbxd6nuQAAAABJRU5ErkJggg==\">\r\n            <span style=\"float: left;margin: 7px;font-size: 15px;font-weight: 600;color: black;\">{{name}}<\/span>\r\n            <span style=\"padding: 2px 6px;background: #e3714d;border-radius: 10px;float: right;text-align: center;color: #fff;margin-top: 3px;font-size: 15px;\" ng-click=\"addMoney()\">+<\/span>\r\n            <span style=\"padding: 5px 10px;background: #699f3d;border-radius: 15px;float: right;margin-right: 5px;text-align: center;color: #fff;\">₹ {{walletBalance}}<\/span>\r\n        <\/div>\r\n    <\/div>\r\n\r\n    <div ng-show=\"requestForOtp\" style=\"padding: 10px;text-align: center;margin-top: 20px;\">\r\n        Request an OTP to link FreeCharge Wallet to\r\n        <div style=\"font-size: 16px;font-weight: 600;\">+91{{phone}}<\/div>\r\n        <button type=\"button\" ng-click=\"requestOtp()\"\r\n                style=\"width: 50%;padding: 10px;border-radius: 3px;margin-top: 10px; border: 0;background: #fd7945;color: white;font-size: 16px;\">\r\n            REQUEST\r\n            OTP\r\n        <\/button>\r\n    <\/div>\r\n\r\n    <div ng-show=\"enterOtp\" style=\"padding: 10px;text-align: center;margin-top: 20px;\">\r\n        <div style=\"font-size: 15px;padding: 5px;\">Sending OTP to<\/div>\r\n        <div style=\"font-size: 16px;font-weight: 600;\">+91{{phone}}<\/div>\r\n        <input type=\"text\"\r\n               style=\"font-size: 16px;background: transparent;width: 60%;padding: 10px;text-align: center;border-bottom: 2px solid #fd7945;border-left:0;border-top:0;border-right:0;margin: 10px 10px 20px 10px;\"\r\n               ng-model=\"otp\" placeholder=\"Enter Otp\">\r\n        <br/>\r\n        <button type=\"button\"\r\n                style=\"width: 60%;padding: 10px;border-radius: 3px;margin-top: 10px; border: 0;background: #fd7945;color: white;font-size: 16px;\"\r\n                ng-click=\"verifyOtp()\">VERIFY\r\n        <\/button>\r\n        <br/>\r\n        <button type=\"button\"\r\n                style=\"width: 60%;padding: 10px;border-radius: 3px;margin-top: 10px; border: 1px solid #fd7945;background: #FFF;color: #fd7945;font-size: 16px;\"\r\n                ng-click=\"resendOtp()\">RESEND OTP\r\n        <\/button>\r\n    <\/div>\r\n\r\n<\/div>\r\n"
        },
        {
          "pageid": "FreeChargeWalletPage2",
          "pageTemplate": "<div><\/div>",
          "datatemplate": "<div><\/div>",
          "endpoint": "",
          "pageprocessor": "function pageprocessorFreeChargeWalletPage2(pagedef, $scope, $routeParams, $compile, $http, $rootScope, $sce, $window, $location) {\r\n    var data1 = $compile($(pagedef.datatemplate))($scope);\r\n    $(\"#appContent\").append(data1);\r\n\r\n    var generateChecksum = $rootScope.kryptosEndpoint + '/kryptosds/freecharge/generatechecksum';\r\n    var getAccessToken = $rootScope.freechargeLoginEndpoint + '/api/v2/co/oauth/exchange/token';\r\n\r\n\r\n    var url = $rootScope.redirectUrl;\r\n\r\n    var authCode = \"\";\r\n\r\n\r\n    var iabRef = window.open(url, \"_blank\", \"hardwareback=no,location=no,hidden=no,clearcache=yes,enableViewportScale=yes\");\r\n    var iabClose = function (data) {\r\n        if (authCode == \"\") {\r\n            $location.path('app/FreeChargeWallet/FreeChargeWallet');\r\n            $scope.$apply();\r\n        }\r\n    };\r\n    iabRef.addEventListener(\"exit\", iabClose);\r\n    var hideBlockUi = function () {\r\n        iabRef.show();\r\n        $.unblockUI();\r\n    };\r\n    var cd = \"document.getElementsByClassName('submit')[0].click();\";\r\n    var cb = function (data) {\r\n    };\r\n    var loadStop = function (data) {\r\n\r\n        /*iabRef.executeScript({\r\n         code: cd\r\n         }, cb);*/\r\n    };\r\n\r\n    var loadStart = function (data) {\r\n\r\n        alert(JSON.stringify(data));\r\n        if (data.url.indexOf(\"authCode=\") != -1) {\r\n            authCode = data.url.substr(data.url.indexOf(\"authCode\") + 9);\r\n\r\n            iabRef.close();\r\n            $.blockUI({\r\n                message: '<div id=\"floatingBarsG\"><div class=\"blockG\" id=\"rotateG_01\"><\/div><div class=\"blockG\" id=\"rotateG_02\"><\/div><div class=\"blockG\" id=\"rotateG_03\"><\/div><div class=\"blockG\" id=\"rotateG_04\"><\/div><div class=\"blockG\" id=\"rotateG_05\"><\/div><div class=\"blockG\" id=\"rotateG_06\"><\/div><div class=\"blockG\" id=\"rotateG_07\"><\/div><div class=\"blockG\" id=\"rotateG_08\"><\/div><\/div><div><\/div>'\r\n            });\r\n            var accessTokenParam = {\r\n                authCode: authCode,\r\n                merchantId: $rootScope.merchantId,\r\n                grantType: 'AUTHORIZATION_CODE'\r\n            };\r\n            callApi('POST', accessTokenParam, generateChecksum, function (err, data) {\r\n                accessTokenParam['checksum'] = data;\r\n\r\n                callApi('POST', accessTokenParam, getAccessToken, function (err, data) {\r\n                    $.unblockUI();\r\n                    if (err) {\r\n                        alert(JSON.stringify(err));\r\n                    } else {\r\n                        var accessToken = data['accessToken'];\r\n                        $.jStorage.set('accessToken', accessToken);\r\n\r\n                        $location.path('app/FreeChargeWallet/FreeChargeWallet');\r\n                    }\r\n                })\r\n\r\n            })\r\n\r\n        }\r\n\r\n    }\r\n    iabRef.addEventListener(\"loadstop\", loadStop);\r\n    iabRef.addEventListener(\"loadstart\", loadStart);\r\n\r\n    function callApi(proxyMethod, proxyData, url, callback) {\r\n        try {\r\n            $http({\r\n                method: proxyMethod,\r\n                url: url,\r\n                data: proxyData\r\n            }).\r\n            success(function (data, status, headers, config) {\r\n                callback(null, data);\r\n            }).\r\n            error(function (data, status, headers, config) {\r\n                callback(data, null);\r\n            });\r\n\r\n        } catch (e) {\r\n        }\r\n\r\n    }\r\n\r\n}"
        },
        {
          "pageid": "FreeChargeWalletPage3",
          "pageTemplate": "<div><\/div>",
          "pageprocessor": "function pageprocessorFreeChargeWalletPage3(pagedef, $scope, $routeParams, $compile, $http, $rootScope, $sce, $window, $location) {\r\n    var data1 = $compile($(pagedef.datatemplate))($scope);\r\n    $(\"#appContent\").append(data1);\r\n    $scope.amount = '';\r\n    var accessToken = $.jStorage.get('accessToken');\r\n\r\n    var generateChecksum = $rootScope.kryptosEndpoint + '/kryptosds/freecharge/generatechecksum';\r\n\r\n    var metadata = 'TXNID' + Math.floor((Math.random() * 10) + 1) + \"\" + Math.floor((Math.random() * 10) + 1) + \"\" + Math.floor((Math.random() * 10) + 1) + $rootScope.phone;\r\n\r\n    var addMoneyUrl = $rootScope.freechargeCheckoutEndpoint + '/api/v1/co/oauth/wallet/add?callbackUrl=https://kryptos.kryptosmobile.com/freecharge/register&merchantId=' + $rootScope.merchantId + '&loginToken=' + accessToken + '&channel=WAP&metadata=' + $rootScope.phone;\r\n\r\n    var addMoneyParam = {\r\n        callbackUrl: 'https://kryptosda.kryptosmobile.com/kryptosds/freecharge/saveaddmoney',\r\n        merchantId: $rootScope.merchantId,\r\n        channel: 'WAP',\r\n        metadata: metadata\r\n    };\r\n\r\n\r\n    function callApi3(proxyMethod, proxyData, url, callback) {\r\n        try {\r\n            $http({\r\n                method: proxyMethod,\r\n                url: url,\r\n                data: proxyData\r\n            }).success(function(data, status, headers, config) {\r\n                callback(null, data);\r\n            }).error(function(data, status, headers, config) {\r\n                callback(data, null);\r\n            });\r\n\r\n        } catch (e) {}\r\n\r\n    }\r\n\r\n    $('#addmoney-form').submit(function(event) {\r\n        var $form = $(this);\r\n\r\n        // Disable the submit button to prevent repeated clicks\r\n        $form.find('button').prop('disabled', true);\r\n\r\n        $.blockUI({\r\n            message: '<div id=\"floatingBarsG\"><div class=\"blockG\" id=\"rotateG_01\"><\/div><div class=\"blockG\" id=\"rotateG_02\"><\/div><div class=\"blockG\" id=\"rotateG_03\"><\/div><div class=\"blockG\" id=\"rotateG_04\"><\/div><div class=\"blockG\" id=\"rotateG_05\"><\/div><div class=\"blockG\" id=\"rotateG_06\"><\/div><div class=\"blockG\" id=\"rotateG_07\"><\/div><div class=\"blockG\" id=\"rotateG_08\"><\/div><\/div><div><\/div>'\r\n        });\r\n\r\n\r\n        addMoneyParam['amount'] = \"\" + $scope.amount;\r\n\r\n        getEncryptToken(accessToken, function(data) {\r\n\r\n            addMoneyParam['loginToken'] = data.logintoken;\r\n\r\n            var loginToken = data.logintoken;\r\n\r\n\r\n            callApi3('POST', addMoneyParam, generateChecksum, /*  callback*/ function(err, data) {\r\n                addMoneyParam['checksum'] = data;\r\n                sendEmail(addMoneyParam);\r\n                $.unblockUI();\r\n\r\n\r\n                var iabRef = window.open('partials/freecharge.html', \"_blank\", \"hardwareback=no,location=yes,hidden=no,clearcache=yes,enableViewportScale=yes\");\r\n                var iabClose = function(data) {\r\n                    if (authCode == \"\") {\r\n                        $location.path('app/FreeChargeWallet/FreeChargeWallet');\r\n                        $scope.$apply();\r\n                    }\r\n                };\r\n                iabRef.addEventListener(\"exit\", iabClose);\r\n                var hideBlockUi = function() {\r\n                    iabRef.show();\r\n                    $.unblockUI();\r\n                };\r\n                var cd = \"$('#addmoney-form').append($('<input type='hidden' name='callbackUrl' />').val(\" + addMoneyParam['callbackUrl'] + \"));\";\r\n                cd += \"$('#addmoney-form').append($('<input type='hidden' name='checksum' />').val(\" + addMoneyParam['checksum'] + \"))\";\r\n                cd += \"$('#addmoney-form').append($('<input type='hidden' name='merchantId' />').val(\" + addMoneyParam['merchantId'] + \"))\";\r\n                cd += \"$('#addmoney-form').append($('<input type='hidden' name='loginToken' />').val(\" + addMoneyParam['loginToken'] + \"))\";\r\n                cd += \"$('#addmoney-form').append($('<input type='hidden' name='channel' />').val(\" + addMoneyParam['channel'] + \"))\";\r\n                cd += \"$('#addmoney-form').append($('<input type='hidden' name='metadata' />').val(\" + addMoneyParam['metadata'] + \"))\";\r\n                cd += \"$('#addmoney-form').append($('<input type='hidden' name='amount' />').val(\" + addMoneyParam['amount'] + \"))\";\r\n                cd += \"$('#addmoney-form').get(0).submit();\"\r\n\r\n                var cb = function(data) {}\r\n                var loadStop = function(data) {\r\n\r\n                    iabRef.executeScript({\r\n                        code: cd\r\n                    }, cb);\r\n                };\r\n\r\n                var loadStart = function(data) {\r\n\r\n                }\r\n                iabRef.addEventListener(\"loadstop\", loadStop);\r\n                iabRef.addEventListener(\"loadstart\", loadStart);\r\n\r\n                /*try {\r\n                 $form.append($('<input type=\"hidden\" name=\"callbackUrl\" />').val(addMoneyParam['callbackUrl']));\r\n                 $form.append($('<input type=\"hidden\" name=\"checksum\" />').val(addMoneyParam['checksum']));\r\n                 $form.append($('<input type=\"hidden\" name=\"merchantId\" />').val(addMoneyParam['merchantId']));\r\n                 $form.append($('<input type=\"hidden\" name=\"loginToken\" />').val(addMoneyParam['loginToken']));\r\n                 $form.append($('<input type=\"hidden\" name=\"channel\" />').val(addMoneyParam['channel']));\r\n                 $form.append($('<input type=\"hidden\" name=\"metadata\" />').val(addMoneyParam['metadata']));\r\n                 $form.append($('<input type=\"hidden\" name=\"amount\" />').val(addMoneyParam['amount']));\r\n                 $form.get(0).submit();\r\n                 } catch (e) {\r\n                 alert(e);\r\n                 }*/\r\n            });\r\n\r\n        })\r\n\r\n\r\n        // Prevent the form from submitting with the default action\r\n        //return false;\r\n    });\r\n\r\n\r\n    $scope.addMoneyButton = function() {\r\n\r\n        $.blockUI({\r\n            message: '<div id=\"floatingBarsG\"><div class=\"blockG\" id=\"rotateG_01\"><\/div><div class=\"blockG\" id=\"rotateG_02\"><\/div><div class=\"blockG\" id=\"rotateG_03\"><\/div><div class=\"blockG\" id=\"rotateG_04\"><\/div><div class=\"blockG\" id=\"rotateG_05\"><\/div><div class=\"blockG\" id=\"rotateG_06\"><\/div><div class=\"blockG\" id=\"rotateG_07\"><\/div><div class=\"blockG\" id=\"rotateG_08\"><\/div><\/div><div><\/div>'\r\n        });\r\n\r\n\r\n        addMoneyParam['amount'] = \"\" + $scope.amount;\r\n\r\n        getEncryptToken(accessToken, function(data) {\r\n\r\n            addMoneyParam['loginToken'] = data.logintoken;\r\n\r\n            var loginToken = data.logintoken;\r\n\r\n\r\n            callApi3('POST', addMoneyParam, generateChecksum, /*  callback*/ function(err, data) {\r\n                addMoneyParam['checksum'] = data;\r\n                sendEmail(addMoneyParam);\r\n                //$.unblockUI();\r\n\r\n\r\n                var iabRef = window.open('http://kryptosmobile.com/freecharge.html', \"_blank\", \"hardwareback=no,location=no,hidden=no,clearcache=yes,enableViewportScale=yes\");\r\n                var iabClose = function(data) {\r\n                    $.unblockUI();\r\n                    if (authCode == \"\") {\r\n                        $location.path('app/FreeChargeWallet/FreeChargeWallet');\r\n                        $scope.$apply();\r\n                    }\r\n                };\r\n                iabRef.addEventListener(\"exit\", iabClose);\r\n                var hideBlockUi = function() {\r\n                    iabRef.show();\r\n                    $.unblockUI();\r\n                };\r\n\r\n                var cd = \"document.getElementsByName('callbackUrl')[0].value = '\" + addMoneyParam['callbackUrl'] + \"';document.getElementsByName('checksum')[0].value = '\" + addMoneyParam['checksum'] + \"';document.getElementsByName('merchantId')[0].value = '\" + addMoneyParam['merchantId'] + \"';document.getElementsByName('loginToken')[0].value = '\" + addMoneyParam['loginToken'] + \"';document.getElementsByName('channel')[0].value = '\" + addMoneyParam['channel'] + \"';document.getElementsByName('metadata')[0].value = '\" + addMoneyParam['metadata'] + \"';document.getElementsByName('amount')[0].value = '\" + addMoneyParam['amount'] + \"';document.getElementById('addmoney-form').submit();\";\r\n\r\n                //var cd=\"setTimeout(function(){alert('aaa')},2000)\";\r\n\r\n                /*iabRef.executeScript({\r\n                 code: cd\r\n                 }, cb);\r\n                 */\r\n                var cb = function(data) {\r\n\r\n                }\r\n                var loadStop = function(data) {\r\n                    if (data.url.indexOf('kryptosmobile.com/freecharge.html') != -1) {\r\n                        iabRef.executeScript({\r\n                            code: cd\r\n                        }, cb);\r\n                    }\r\n                    /*if (data.url.indexOf('freecharge.in/payment') != -1) {\r\n                     hideBlockUi();\r\n                     }*/\r\n\r\n                };\r\n\r\n                var loadStart = function(data) {\r\n                    if (data.url.indexOf('freecharge/saveaddmoney') != -1) {\r\n                        $http({\r\n                            method: 'GET',\r\n                            url: 'https://kryptosda.kryptosmobile.com/kryptosds/freecharge/getaddmoney/' + addMoneyParam['metadata']\r\n                        }).then(function successCallback(response) {\r\n                            if (response.data.data.status == \"COMPLETED\") {\r\n                                iabRef.close();\r\n\r\n                                $location.path('/app/FreeChargeWallet/FreeChargeWallet');\r\n                                navigator.notification.alert('Money added in the wallet.', null, 'Alert', 'Ok');\r\n                            } else {\r\n                                iabRef.close();\r\n                                navigator.notification.alert('Money not added in the wallet. Please try adding money again.', null, 'Error', 'Ok');\r\n                            }\r\n                        }, function errorCallback(response) {\r\n                            alert(JSON.stringify(response));\r\n                        });\r\n                    }\r\n                };\r\n\r\n\r\n                iabRef.addEventListener(\"loadstop\", loadStop);\r\n                iabRef.addEventListener(\"loadstart\", loadStart);\r\n\r\n                /*try {\r\n                 $form.append($('<input type=\"hidden\" name=\"callbackUrl\" />').val(addMoneyParam['callbackUrl']));\r\n                 $form.append($('<input type=\"hidden\" name=\"checksum\" />').val(addMoneyParam['checksum']));\r\n                 $form.append($('<input type=\"hidden\" name=\"merchantId\" />').val(addMoneyParam['merchantId']));\r\n                 $form.append($('<input type=\"hidden\" name=\"loginToken\" />').val(addMoneyParam['loginToken']));\r\n                 $form.append($('<input type=\"hidden\" name=\"channel\" />').val(addMoneyParam['channel']));\r\n                 $form.append($('<input type=\"hidden\" name=\"metadata\" />').val(addMoneyParam['metadata']));\r\n                 $form.append($('<input type=\"hidden\" name=\"amount\" />').val(addMoneyParam['amount']));\r\n                 $form.get(0).submit();\r\n                 } catch (e) {\r\n                 alert(e);\r\n                 }*/\r\n            });\r\n\r\n        })\r\n\r\n    }\r\n\r\n    $scope.addOne = function() {\r\n        if ($scope.amount == '')\r\n            $scope.amount = 0;\r\n        $scope.amount = parseFloat($scope.amount) + 100;\r\n        $scope.$apply();\r\n    }\r\n    $scope.addTwo = function() {\r\n        if ($scope.amount == '')\r\n            $scope.amount = 0;\r\n        $scope.amount = parseFloat($scope.amount) + 200;\r\n        $scope.$apply();\r\n    }\r\n    $scope.addThree = function() {\r\n        if ($scope.amount == '')\r\n            $scope.amount = 0;\r\n        $scope.amount = parseFloat($scope.amount) + 500;\r\n        $scope.$apply();\r\n    }\r\n\r\n    function getEncryptToken(accessToken, cb) {\r\n        var xhr = $.ajax({\r\n            url: \"https://kryptos.kryptosmobile.com/gateway/CEAI/fclogintokengenerator?accessToken=\" + accessToken,\r\n            type: \"GET\",\r\n            headers: {\r\n                'licenseKey': 'UjpIaWVDVzpTOjE0NDk0ODk2MzUxMzE6VTpha0BjYW1wdXNlYWkub3JnOlQ6NDpQOjI4Ng=='\r\n            },\r\n            success: function(data) {\r\n                cb(data)\r\n\r\n            },\r\n            error: function(err) {\r\n                cb(null);\r\n\r\n            }\r\n        });\r\n\r\n    }\r\n\r\n    function sendEmail(addMoneyParam) {\r\n        var emailBody = \"<html><body>\";\r\n        emailBody += \"<div style='width:100%;color: #000;text-align: left;vertical-align: 30px'>\" + JSON.stringify(addMoneyParam) + \"<\/div><br/>\";\r\n\r\n        emailBody += \"<\/body><\/html>\";\r\n        var emailData = {\r\n            'to': 'damanpreet_singh@lookingglasskryptos.com',\r\n            'subject': 'addmoney',\r\n            'body': emailBody,\r\n            'from': 'order@kryptosmobile.com',\r\n            'attachment': true\r\n\r\n        };\r\n\r\n        var xhr = $.ajax({\r\n            url: \"https://kryptos.kryptosmobile.com/gateway/CEAI/kryptosemailsender\",\r\n            contentType: 'application/json',\r\n            type: \"POST\",\r\n            headers: {\r\n                'licenseKey': 'UjpIaWVDVzpTOjE0NDk0ODk2MzUxMzE6VTpha0BjYW1wdXNlYWkub3JnOlQ6NDpQOjI4Ng=='\r\n            },\r\n            data: JSON.stringify(emailData),\r\n            success: function(data) {\r\n                console.log(JSON.stringify(data));\r\n\r\n\r\n            },\r\n            error: function(err) {\r\n\r\n\r\n            }\r\n        });\r\n\r\n    }\r\n\r\n}",
          "endpoint": "",
          "datatemplate": "<style>\r\n    @import url(http://fonts.googleapis.com/css?family=Open+Sans:300italic,400italic,700italic,300,400,700);\r\n\r\n    .openSans {\r\n        font-family: 'Open Sans', sans-serif;\r\n    }\r\n\r\n    .app-body {\r\n        background: #EBEBEB;\r\n        padding-bottom: 0px !important;\r\n    }\r\n\r\n    .has-navbar-top .app-body {\r\n        padding-top: 47px;\r\n    }\r\n\r\n    .navbar-absolute-bottom {\r\n        top: auto;\r\n        bottom: 0;\r\n        border-bottom: 0 none;\r\n        border-top-width: 1px;\r\n        min-height: 0 !important;\r\n        height: 0 !important;\r\n    }\r\n\r\n    .navbar-absolute-top {\r\n        top: 0;\r\n        border-bottom-width: 0px !important;\r\n    }\r\n\r\n    .backButtonArrow {\r\n        display: none;\r\n    }\r\n\r\n    .app-body {\r\n\r\n    }\r\n<\/style>\r\n<div class=\"openSans\" style=\"padding: 10px;\">\r\n    <div style=\"padding: 15px;border: 2px solid #e3e8e9;background: white;\">\r\n        <span style=\"font-weight: 600;\">General Balance &nbsp;&nbsp;&nbsp;₹{{walletBalance}}<\/span>\r\n        <hr style=\"border-top: 1px solid #f0f4f5;margin-left: 10px;margin-right: 10px;\">\r\n        <span> You can add upto ₹10000 in your wallet.<\/span>\r\n    <\/div>\r\n\r\n\r\n    <div style=\"padding: 15px;border-bottom: 2px solid #e3714d;border-left: 2px solid #e3e8e9;border-top: 2px solid #e3e8e9;border-right:2px solid #e3e8e9;background: white;font-weight: 600;margin-top: 10px;\">\r\n        ADD MONEY\r\n    <\/div>\r\n    <div style=\"padding: 30px 20px 20px 20px;border: 2px solid #e3e8e9;background: white;text-align: center;\">\r\n\r\n        <input type=\"text\" name=\"money\" ng-model=\"amount\" placeholder=\"ENTER AMOUNT\"\r\n               style=\"width: 100%;padding:10px;text-align: left;\">\r\n        <div style=\"margin-top: 30px;margin-bottom: 10px;\">\r\n            <div class=\"col-xs-4 col-md-4\" style=\"padding: 0;margin: 0;\">\r\n                <span style=\"padding: 10px 15px;border: 1px solid #909090;border-radius: 20px;\" ng-click=\"addOne()\">+100<\/span>\r\n            <\/div>\r\n            <div class=\"col-xs-4 col-md-4\" style=\"padding: 0;margin: 0;\">\r\n                <span style=\"padding: 10px 15px;border: 1px solid #909090;border-radius: 20px;\" ng-click=\"addTwo()\">+200<\/span>\r\n            <\/div>\r\n            <div class=\"col-xs-4 col-md-4\" style=\"padding: 0;margin: 0;\">\r\n                <span style=\"padding: 10px 15px;border: 1px solid #909090;border-radius: 20px;\" ng-click=\"addThree()\">+500<\/span>\r\n            <\/div>\r\n            <div style=\"clear:both;\"><\/div>\r\n\r\n\r\n        <\/div>\r\n        <!--<button type=\"submit\"\r\n                style=\"text-align: center;margin-top: 20px;background: #e3714d;color: #fff;padding: 15px;border: 0;width: 100%\">ADD MONEY\r\n        <\/button>-->\r\n\r\n        <button ng-click=\"addMoneyButton()\"\r\n                style=\"text-align: center;margin-top: 20px;background: #e3714d;color: #fff;padding: 15px;border: 0;width: 100%\">ADD MONEY\r\n        <\/button>\r\n    <\/div>\r\n<\/div>"
        },
        {
          "pageid": "FreeChargeWalletPage4",
          "pageTemplate": "<div><\/div>",
          "endpoint": "",
          "datatemplate": "<div>Sample Data<\/div>",
          "pageprocessor": "function pageprocessorFreeChargeWalletPage4(pagedef, $scope, $routeParams, $compile, $http, $rootScope, $sce, $window, $location) {var data1 = $compile($(pagedef.datatemplate))($scope);$(\"#appContent\").append(data1);}"
        }
      ]
    }
  ],
  "pages": 
  [
  ]
}